%YAML 1.1
%TAG !u! tag:unity3d.com,2011:
--- !u!114 &11400000
MonoBehaviour:
  m_ObjectHideFlags: 0
  m_PrefabParentObject: {fileID: 0}
  m_PrefabInternal: {fileID: 0}
  m_GameObject: {fileID: 0}
  m_Enabled: 1
  m_EditorHideFlags: 0
  m_Script: {fileID: 11500000, guid: 66b3aad753f30c1408f597e39414aff6, type: 3}
  m_Name: Shadow's Skull
  m_EditorClassIdentifier: 
  entityPrefab: {fileID: 1935699125202024, guid: ad684be044ebea94d85ea60711b09d18,
    type: 2}
  itemType: 2
  icon: {fileID: 21300000, guid: 03131e68c6a0ac546a3a7c8c71c3cec8, type: 3}
  color: {r: 1, g: 1, b: 1, a: 1}
  statEffects:
  - {fileID: 11400000, guid: 8c80a7c393d97cc48894d1e4ae1730c6, type: 2}
  - {fileID: 11400000, guid: 290a57a6c1a9a934da541ef82f4ecc4b, type: 2}
