%YAML 1.1
%TAG !u! tag:unity3d.com,2011:
--- !u!114 &11400000
MonoBehaviour:
  m_ObjectHideFlags: 0
  m_PrefabParentObject: {fileID: 0}
  m_PrefabInternal: {fileID: 0}
  m_GameObject: {fileID: 0}
  m_Enabled: 1
  m_EditorHideFlags: 0
  m_Script: {fileID: 11500000, guid: 66b3aad753f30c1408f597e39414aff6, type: 3}
  m_Name: Veldrin's Ring
  m_EditorClassIdentifier: 
  entityPrefab: {fileID: 1190931708284298, guid: c312fc64a5c296145abc0060f045cc8e,
    type: 2}
  itemType: 8
  icon: {fileID: 21300000, guid: b79c1b5cc9ca54047ba1ecdf48ac4b78, type: 3}
  color: {r: 1, g: 1, b: 1, a: 1}
  statEffects:
  - {fileID: 11400000, guid: b8ef674b6161bef4e83a3846c8bbfe3c, type: 2}
  - {fileID: 11400000, guid: 8c80a7c393d97cc48894d1e4ae1730c6, type: 2}
