%YAML 1.1
%TAG !u! tag:unity3d.com,2011:
--- !u!114 &11400000
MonoBehaviour:
  m_ObjectHideFlags: 0
  m_PrefabParentObject: {fileID: 0}
  m_PrefabInternal: {fileID: 0}
  m_GameObject: {fileID: 0}
  m_Enabled: 1
  m_EditorHideFlags: 0
  m_Script: {fileID: 11500000, guid: 0c7a8c9831c153d4b86156cdb706f436, type: 3}
  m_Name: Reduce Stamina II
  m_EditorClassIdentifier: 
  name: Reduce Stamina II
  affectedCharacter: {fileID: 0}
  effectAmount: -50
  noLifeSpan: 1
  effectLifeSpan: 1
  toRemove: 0
  itemEffect: 0
  effectProcced: 0
  effectType: 0
  affectedStat: 1
